{
  "navigation": {
    "home": "Accueil",
    "search": "Rechercher",
    "library": "Bibliothèque",
    "library-screens": {
      "entry": "Bibliothèque",
      "playlist-details": "Liste de lecture"
    },
    "settings": {
      "entry": "Paramètres",
      "stats": "Statistiques d'utilisation",
      "appearance": "Apparance",
      "downloads": "Téléchargements",
      "streaming": "Streaming"
    },
    "importer": {
      "spotify-import": "Importation Spotify"
    }
  },
  "network": {
    "you-are-offline": "<0>Vous êtes hors ligne.</0> Seuls les titres enregistrés dans votre bibliothèque sont disponibles."
  },
  "captions": {
    "cancel": "Annuler",
    "share-track": "Partager le titre...",
    "add-to-playlist": "Ajouter à la playlist...",
    "create-new-playlist": "Créer une playlist...",
    "playlist-name": "Choisir un nom pour la playlist :",
    "local-track-file-info": "Informations du fichier local"
  }
}