{
  "captions": {
    "general": "Géneral",
    "preferences": "Préférences",
    "updates": "Mise à jour",
    "update-now": "Mettre à jour",
    "contribute": "Soutenir et contribuer",
    "storage": "Stockage",
    "behavior": "Comportement",
    "release-notes": "Notes de version",
    "theme": "Thème"
  },
  "modules": {
    "stats": {
      "meta": {
        "title": "Statistiques d'utilisation",
        "subtitle": "Temps de lecture total, etc..."
      }
    },
    "appearance": {
      "meta": {
        "title": "Apparence",
        "subtitle": "Mode sombre, couleur dominante, etc..."
      },
      "dark-mode": {
        "title": "Mode sombre"
      },
      "primary-color": {
        "title": "Couleur dominante"
      }
    },
    "streaming": {
      "meta": {
        "title": "Streaming",
        "subtitle": "Qualité audio, etc..."
      },
      "audio-quality": {
        "title": "Qualité audio",
        "subtitle": "Faible donne des fichiers moins lourd, Moyenne pour avoir une meilleur qualité audio"
      }
    },
    "downloads": {
      "meta": {
        "title": "Téléchargements",
        "subtitle": "Dossier de destination, format de fichier, etc..."
      },
      "destination-folder": {
        "title": "Dossier de destination..."
      },
      "file-format": {
        "title": "Format de fichier..."
      },
      "flat-folder": {
        "title": "Structure de dossier plat",
        "subtitle": "Stocker tous les titres dans un dossier, où dans un dossier par artiste"
      }
    },
    "updates": {
      "check-for-updates": {
        "title": {
          "default": "Vérifier les mises à jour...",
          "updates-available": "Une mise à jour est disponible !"
        },
        "subtitle": "Dernière vérification : {{time}}",
        "do-u-want-to-update": "Voulez vous procéder à la mise à jour ?"
      },
      "release-notes": {
        "title": "Notes de version",
        "subtitle": "Version installée : {{version}}"
      }
    },
    "donate": {
      "meta": {
        "title": "Faire un don",
        "subtitle": "En faisant un don vous contribuez aux frais d'infrastructure et de développement de Muzify !"
      }
    }
  }
}