{
  "navigation": {
    "home": "Home",
    "search": "Search",
    "library": "Library",
    "library-screens": {
      "entry": "Library",
      "playlist-details": "Playlist"
    },
    "settings": {
      "entry": "Settings",
      "stats": "Usage statistics",
      "appearance": "Appearance",
      "downloads": "Downloads",
      "streaming": "Streaming"
    },
    "importer": {
      "spotify-import": "Spotify Import"
    }
  },
  "network": {
    "you-are-offline": "<0>You are currently offline.</0> Only tracks saved in your library are available."
  },
  "captions": {
    "cancel": "Cancel",
    "share-track": "Share track...",
    "add-to-playlist": "Add to playlist...",
    "create-new-playlist": "Create new playlist...",
    "playlist-name": "Enter a name for the playlist:",
    "local-track-file-info": "Local file infos"
  }
}