{
  "captions": {
    "x-tracks": "{{tracksCount}} tracks"
  },
  "playLibraryButton": "Play library ({{tracksCount}} tracks)",
  "createPlaylistButton": "Create playlist...",
  "trackDetails": {
    "addedOn": "Added on:",
    "fileSize": "File size:",
    "filePath": "File path:",
    "deleteTrackButton": "Delete track"
  },
  "download": {
    "success": "Track \"{{trackArtist}} - {{trackTitle}}\" has been downloaded!",
    "error": "Cannot download \"{{trackArtist}} - {{trackTitle}}\"."
  },
  "delete": {
    "success": "Track \"{{trackArtist}} - {{trackTitle}}\" has been deleted!",
    "error": "Cannot delete \"{{trackArtist}} - {{trackTitle}}\"."
  },
  "most-played-tracks": "Most played tracks",
  "most-repeated-tracks": "Your best loops",
  "playlists": {
    "add-track": {
      "success": "Track \"{{trackArtist}} - {{trackTitle}}\" has been added to playlist \"{{playlistName}}\"!"
    }
  },
  "create-playlist-form": {
    "playlist-name": "Playlist title"
  },
  "sync-playlist": {
    "hint": "Keep playlist tracks locally"
  }
}