{
  "import-button": "Importer",
  "placeholders": {
    "playlist-id": "Ex. 37i9dQZF1EpjqUW6DBsVRa..."
  },
  "captions": {
    "playlist": "Liste de lecture",
    "tracks": "Titres",
    "import-progress": "Progression : {{percent}}%",
    "imported-count": "Fichiers synchro. : {{syncedFiles}} / {{totalFiles}}"
  },
  "empty-state": {
    "title": "Importez vos playlists Spotify",
    "subtitle": "Renseignez l'ID Spotify de votre playlist publique pour choisir quoi importer dans Muzify"
  }
}