{
  "captions": {
    "x-tracks": "{{tracksCount}} titres"
  },
  "playLibraryButton": "Lire la bibliothèque ({{tracksCount}} titres)",
  "createPlaylistButton": "Créer une playlist...",
  "trackDetails": {
    "addedOn": "Ajouté le :",
    "fileSize": "Taille du fichier :",
    "filePath": "Chemin du fichier :",
    "deleteTrackButton": "Supprimer le titre"
  },
  "download": {
    "success": "Le titre \"{{trackArtist}} - {{trackTitle}}\" a été téléchargé !",
    "error": "Impossible de télécharger le titre \"{{trackArtist}} - {{trackTitle}}\"."
  },
  "delete": {
    "success": "Le titre \"{{trackArtist}} - {{trackTitle}}\" a été supprimé !",
    "error": "Impossible de supprimer le titre \"{{trackArtist}} - {{trackTitle}}\"."
  },
  "most-played-tracks": "Titres les plus écoutés",
  "most-repeated-tracks": "Vos meilleures boucles",
  "playlists": {
    "add-track": {
      "success": "Le titre \"{{trackArtist}} - {{trackTitle}}\" a été ajouté à la liste de lecture \"{{playlistName}}\""
    }
  },
  "create-playlist-form": {
    "playlist-name": "Titre de la playlist"
  },
  "sync-playlist": {
    "hint": "Garder les titres sur l'appareil"
  }
}