{
  "enable": true,
  "extends": [
    "tslint-config-prettier"
  ],
  "linterOptions": {
    "exclude": [
      "node_modules",
      "**/*.js"
    ]
  },
  "rules": {
    "import-name": false,
    "no-submodule-imports": false,
    "interface-over-type-literal": false,
    "no-var-keyword": true,
    "no-parameter-reassignment": true
  }
}